  _________
    / ======= \
   / __________\
  | ___________ |
  | | -       | |
  | |         | |
  | |_________| |________________________
  \=____________/   MNL Tech Community   )
  / """"""""""" \                       /
 / ::::::::::::: \                  =D-'
(_________________)